{
  "$schema": "https://json-schema.org/draft/2020-12/schema",
  "type": "object",
  "required": [
    "host",
    "token",
    "tables"
  ],
  "properties": {
    "host": {
      "type": "string"
    },
    "token": {
      "type": "string"
    },
    "tables": {
      "type": "array",
      "items": {
        "type": "object",
        "properties": {
          "kbc_table_id": {
            "type": "string"
          },
          "input_table_name": {
            "type": "string"
          },
          "incremental": {
            "type": "boolean",
            "default": false
          },
          "primary_key": {
            "type": "string",
            "description": "It's used just in case when table do not exists and creating a new one. Primary key of a table. The primary key can be also composed by multiple columns; the columns must be separated by a comma."
          }
        },
        "required": [
          "kbc_table_id",
          "input_table_name"
        ]
      }
    }
  }
}
